[
	{
		"title": "Nintendo Switch™ w/ Neon Blue & Neon Red Joy-Con™ + Mario Kart™ 8 Deluxe",
		"category_id": 13,
		"product_id": 1,
		"description": "Disfruta de una experiencia de consola doméstica incluso sin televisor. Nintendo Switch se transforma para adaptarse a tu situación y te permite jugar a los títulos que quieras aunque no tengas mucho tiempo. Es una nueva era en la que no tienes que adaptar tu vida a los videojuegos: ahora es la consola la que se adapta a tu vida. ¡Disfruta de tus juegos cuando quieras, donde quieras y como quieras!.",
		"features": [
			"Incluye una consola Switch, base Switch, Joy-Con (L) y Joy-Con (R), agarre Joy-Con, adaptador de CA, cable HDMI, y 2 accesorios de correa Joy-Con, Mario Kart 8 Deluxe y una membresía individual de 3 meses. Este modelo incluye una duración de la batería de aproximadamente 4,5-9 horas. La duración de la batería dependerá de los juegos que juegues. Por ejemplo, la batería durará aproximadamente 5,5 horas para The Legend of Zelda: Breath of the Wild (los juegos se venden por separado).",
			"Se requiere membresía de Nintendo Switch en línea y cuenta de Nintendo para jugar en línea. No disponible en todos los países. Se requiere acceso a Internet para funciones en línea. La membresía de Nintendo Switch Online se actualizará automáticamente después de 3 meses. Se aplican términos..",
			"Ligero, cómodo ajuste alrededor de la oreja que puedes llevar todo el día.",
			"Corre y lucha contra tus amigos en la versión definitiva del juego Mario Kart 8."
		],
		"price": 420,
		"stock": 20,
		"extra_info": [
			{
				"label": "Marca",
				"value": "Nintendo Switch"
			},
			{
				"label": "Fabricante",
				"value": "Nintendo"
			},
			{
				"label": "Número del modelo del producto",
				"value": "HADSKABLD"
			},
			{
				"label": "Año del modelo",
				"value": "2020"
			},
			{
				"label": "Dimensiones del producto",
				"value": "4 x 8 x 14 pulgadas; 3.75 Libras"
			}
		]
	},
	{
		"title": "Abollria - Consola de juegos retro, con más de 41.000 juegos, sistema de control dual para videojuegos + TV, consola de juegos 80+ para 4K TV HDMI/AV, 128 GB (Super Console X-pro)",
		"category_id": 13,
		"product_id": 1,
		"description": "Super Console-X PRO para TV 4K Sistema dual, juegos de apoyo, descarga la aplicación por ti mismo buscando información y viendo la televisión en línea, mucha más diversión, será un buen asistente en nuestra vida y entretenimiento.",
		"features": [
			"La nueva consola X-Pro de Abollria está equipada con un sistema dual mejorado. El sistema de TV y el sistema de juego se combinan en uno. Es compatible con juegos, descargar aplicaciones por ti mismo, buscar información en Google y ver la televisión en línea. Sus funciones ricas hacen que sea un buen asistente para nuestro entretenimiento y trabajo.",
			"Más de 41000 juegos: más de 50 emuladores y más de 41.000 juegos han sido preinstalados. Sistema linux de código abierto, chip S905X actualizado, función más potente, resuelve el problema de pérdida de marco, puede ejecutar perfectamente juegos de 64 bits, como PSP/PS1/DC/N64/NDS/MAME. Espera. Y es compatible con salvar el progreso del juego en cualquier momento. Muy práctico.",
			"Conexión Wi-Fi y LAN: esta consola de videojuegos clásica soporta la conexión a la red a través de LAN y Wifi. Es muy conveniente descargar juegos a través de Internet. Equipado con 2 mandos inalámbricos de 2,4 GHz, la distancia de conexión del controlador es de 8 a 32.8 ft. Soporta hasta 4 jugadores al mismo tiempo, apto para TV 4K, soporta conexión de alta definición, calidad de imagen de alta definición 1080p, puede jugar juegos multijugador con la familia o amigos.",
			"Una consola de juegos muy divertida, que se puede utilizar como la mejor actividad para amigos, familiares y socios para entretener antes. Es adecuado para regalar a familiares y amigos en festivales y cumpleaños, y pasar un buen rato con ellos.",
			"Abollria se compromete a proporcionar a los vendedores la mejor experiencia de juego. Proporcionaremos soporte técnico oportuno. Nuestro sistema contiene muchas funciones, es posible que tengas que pasar algún tiempo para adaptarlo. No te preocupes, si tienes cualquier pregunta, puedes pedir a nuestro servicio al cliente para resolver el problema."
		],
		"price": 150,
		"stock": 10,
		"extra_info": [
			{
				"label": "Marca",
				"value": "Abollria Super Console X-Pro"
			},
			{
				"label": "Fabricante",
				"value": "Abollria"
			},
			{
				"label": "Dimensiones del producto",
				"value": "8.5 x 6.85 x 4.49 pulgadas; 1,56 libras"
			}
		]
	},
	{
		"title": "PlayStation 4 Pro - 1TB",
		"category_id": 13,
		"product_id": 1,
		"description": "El sistema PlayStation más avanzado de todos los tiempos. PS4 Pro está diseñado para tomar sus juegos favoritos de PS4 y agregarles más potencia para gráficos, rendimiento o funciones para su TV HDR 4K o TV HD 1080p. ¿Listo para subir de nivel?.",
		"features": [
			"Gráficos asombrosos - Explora vívidos mundos de juegos con ricos visuales intensificados por PS4 Pro.",
			"Juego mejorado - El soporte para velocidades más rápidas de cuadros resulta en acción súper precisa para juegos de PS4 seleccionados.",
			"Una comunidad unificada de jugadores - Compatible con cualquier juego de PS4. Juega en línea con otros jugadores de PS4 con PlayStation Plus.",
			"Entretenimiento extraordinario - Con hasta 4K de reproducción en línea y 4K de auto escalado para contenido de video."
		],
		"price": 350,
		"stock": 20,
		"extra_info": [
			{
				"label": "Marca",
				"value": "Playstation 4 Pro"
			},
			{
				"label": "Fabricante",
				"value": "Sony"
			},
			{
				"label": "Dimensiones del producto",
				"value": "11.61 x 2.17 x 12.87 pulgadas; 10.67 libras"
			},
			{
				"label": "Año del modelo",
				"value": "2016"
			},
			{
				"label": "Número de modelo del producto",
				"value": "3003346"
			}
		],
		"variant_option_id": 7,
		"variant_value": "Pro (1TB)",
		"variants": [
			{
				"variant_value": "Slim (1TB)",
				"stock": 20,
				"price": 340,
				"features": [
					"Los juegos de PS4 habilitados para HDR cobran vida con colores y claridad increíbles en un televisor HDR, ofreciendo un espectro de colores más vibrante y realista.",
					"Incluye un nuevo sistema PlayStation 4 delgado de 1 TB, un controlador inalámbrico DualShock 4 a juego",
					"Los mejores juegos, TV, música y mucho más. Conéctate con tus amigos para transmitir y celebrar tus momentos épicos pulsando el botón Share para Twitch, YouTube, Facebook y Twitter.",
					"Juega en línea con tus amigos, obtén juegos gratis, guarda juegos en línea y más con la membresía de PlayStation Plus (se vende por separado).",
					"Usa el mando a distancia para transmitir juegos a tu Mac, PC, Xperia y PlayStation Vita."
				]
			}
		]
	},
	{
		"title": "Nintendo Entertainment System NES Classic Edition - Consola de juegos con controles incluidos",
		"category_id": 13,
		"product_id": 1,
		"description": "La consola Nintendo Entertainment System: NES Classic Edition es una versión en miniatura de la aclamada consola NES, lanzada originalmente en 1985. Solo tienes que conectar la consola NES Classic Edition a tu televisor, agarrar el control clásico y redescubrir el encanto de los juegos de NES.",
		"features": [
			"Mini edición clásica: la edición clásica NES es portátil, fácil de usar e ideal para viajar, con diferentes modos de visualización para elegir.",
			"Incluye: el aspecto original y la sensación de la Nintendo Classic Edition, versión en miniatura rediseñada, a más pequeña, elegante y precargada con 30 juegos innovadores, cable HDMI, adaptador de CA y el mini controlador clásico NES.",
			"30 juegos precargados: algunos de sus juegos de acción incluyen Super Mario Bros, Donkey Kong, The Legend of Zelda, PAC-Man, Dr. Mario, Mega Man, Final Fantasy y mucho más.",
			"Compatibilidad: compatible con Classic Controller y Classic Controller Pro. El controlador de videojuegos también se puede utilizar en juegos de consola virtual NES en consola Wii o Wii U conectándolo con un mando a distancia Wii.",
			"Cuatro ranuras de puntos de suspensión por juego: no más preocupaciones por juegos sin terminar, con Nintendo NES guarda tu juego con puntos de suspensión y recoge justo donde lo dejaste. Solo tienes que pulsar el botón de reinicio mientras juegas para volver al menú Home y guardar tu progreso en una ranura."
		],
		"price": 185,
		"stock": 6,
		"extra_info": [
			{
				"label": "Marca",
				"value": "NES Classic Edition"
			},
			{
				"label": "Fabricante",
				"value": "Nintendo"
			},
			{
				"label": "Dimensiones del producto",
				"value": "10.63 x 7.44 x 3.62 pulgadas; 1.39 Libras"
			},
			{
				"label": "Año del modelo",
				"value": "2019"
			}
		]
	},
	{
		"title": "Sega Genesis Mini",
		"category_id": 13,
		"product_id": 1,
		"description": "La icónica consola SEGA Genesis que definió una generación de rendimientos de juego en una unidad elegante y miniaturizada. La consola SEGA Genesis Mini está cargada con 42 juegos legendarios y está listo para usar desde la caja.",
		"features": [
			"La icónica consola SEGA Genesis que definió una generación de retornos de juego en una unidad elegante y miniaturizada.",
			"La consola SEGA Genesis Mini está cargada con 42 juegos legendarios y está listo para conectar y usar nada más sacarlo de la caja",
			"Contenido del envío: consola Sega Genesis Mini y 2 controladores con cable, 40 juegos + 2 juegos de bono, cable de alimentación, adaptador USB y cable HDMI."
		],
		"price": 108,
		"stock": 20,
		"extra_info": [
			{
				"label": "Marca",
				"value": "Genesis Mini"
			},
			{
				"label": "Fabricante",
				"value": "Sega"
			},
			{
				"label": "Dimensiones del producto",
				"value": "9.84 x 3.94 x 11.81 pulgadas; 1.93 Libras"
			},
			{
				"label": "Modelo del producto",
				"value": "SG-10037-2"
			},
			{
				"label": "Año de lanzamiento",
				"value": "2019"
			}
		]
	},
	{
		"title": "Nintendo Switch Lite",
		"category_id": 13,
		"product_id": 1,
		"description": "Presentamos Nintendo Switch Lite, una versión del sistema Nintendo Switch que está optimizado para juegos personales y portátiles. Nintendo Switch Lite es una consola Nintendo Switch pequeña y liviana a un precio excelente. Con un panel de control integrado y un diseño elegante de un solo cuerpo, Nintendo Switch Lite es ideal para juegos en movimiento. Nintendo Switch Lite es compatible con juegos populares como Super Mario Odyssey, Mario Kart 8 Deluxe, Super Smash Bros Ultimate, The Legend of Zelda: Breath of the Wild y más. Si estás buscando un sistema de juego propio, Nintendo Switch Lite está listo para salir a la carretera cuando lo desee.",
		"features": [
			"Optimizado para juegos personales y portátiles, Nintendo Switch Lite es un sistema Nintendo Switch pequeño y liviano",
			"Optimizado para un juego personal y portátil, Nintendo Switch Lite es un sistema pequeño y ligero",
			"Puede ser utilizado con todos los juegos físicos y digitales de Nintendo Switch compatibles con los modelos portátiles"
		],
		"price": 260,
		"stock": 25,
		"extra_info": [
			{
				"label": "Marca",
				"value": "Nintendo Switch Lite"
			},
			{
				"label": "Fabricante",
				"value": "Nintendo"
			},
			{
				"label": "Dimensiones del producto",
				"value": "8.19 x 0.51 x 3.58 pulgadas"
			},
			{
				"label": "Modelo del producto",
				"value": "HDHSBBZAA"
			},
			{
				"label": "Año de lanzamiento",
				"value": "2021"
			}
		],
		"variant_option_id": 4,
		"variant_value": "Azul",
		"variants": [
			{
				"variant_value": "Coral / Lluvia Tropical",
				"stock": 5,
				"price": 260
			},
			{
				"variant_value": "Gris",
				"stock": 8,
				"price": 260
			},
			{
				"variant_value": "Turquesa",
				"stock": 6,
				"price": 260
			},
			{
				"variant_value": "Amarillo",
				"stock": 4,
				"price": 260
			}
		]
	},
	{
		"title": "Xbox Series S - Consola con SSD de 512 GB con controlador inalámbrico, juego completo de Minecraft - Consola de la UE con cable adaptador de EE. UU.",
		"category_id": 13,
		"product_id": 1,
		"description": "Presentamos la Xbox Series S, la consola Xbox más pequeña y elegante jamás. Experimente la velocidad y el rendimiento de una consola totalmente digital de última generación a un precio accesible. Experimente la velocidad y el rendimiento de última generación con la arquitectura Xbox Velocity, con una SSD personalizada y un software integrado. Disfruta de juegos de última generación sin discos, con la consola Xbox más pequeña jamás creada. El paquete incluye: consola Xbox Series S, mando inalámbrico Xbox, juego completo de Minecraft, un cable HDMI de alta velocidad, cable de alimentación de EE. UU. y cable EUpower",
		"features": [
			"La nueva consola Xbox: Presentamos la Xbox Series S, la consola Xbox más pequeña y elegante de la historia",
			"Potencia de procesamiento gráfico: reproduce a 1440P 120 fps con los contectos compatibles; Explora nuevos mundos ricos y disfruta de la acción como nunca antes con los 4 teraflops de potencia de procesamiento gráfico crudo",
			"Más jugando, menos espera: experimenta velocidad y rendimiento de próxima generación con la arquitectura de velocidad de Xbox, alimentado por un SSD NVMe de 512 GB personalizado y software integrado. Muévete sin problemas entre varios juegos en un instante con Quick Resume",
			"Compatibilidad con Xbox Backward: juega miles de juegos de cuatro generaciones de Xbox, incluyendo Xbox One, Xbox 360 y títulos originales de Xbox con compatibilidad con versiones anteriores",
			"El paquete incluye: consola Xbox Series S, controlador inalámbrico Xbox, juego completo Minecraft, un cable HDMI de alta velocidad, cables de alimentación de Estados Unidos y Europa"
		],
		"price": 450,
		"stock": 25,
		"extra_info": [
			{
				"label": "Marca",
				"value": "Xbox Series S"
			},
			{
				"label": "Fabricante",
				"value": "Microsoft"
			},
			{
				"label": "Dimensiones del producto",
				"value": "17 x 11.5 x 4.5 pulgadas; 8 libras"
			},
			{
				"label": "Año de lanzamiento",
				"value": "2021"
			}
		]
	},
	{
		"title": "Xbox One X 1TB Hyperspace Console Edición limitada (modelo 2017)",
		"category_id": 13,
		"product_id": 1,
		"description": "Consola Microsoft Xbox One X Limited White Edition de 1 TB con controlador inalámbrico: Xbox One X mejorado, HDR, Nativo 4K, Ultra HD",
		"features": [
			"Microsoft Xbox One X Limited White Edition 1TB Consola con controlador inalámbrico: Xbox One X mejorado, HDR, Native 4K, Ultra HD",
			"Los juegos juegan mejor en Xbox One X con un 40 % más de potencia que cualquier otra consola, experimenta un verdadero juego 4K envolvente. Ve películas Blu-ray 4K; transmite vídeo 4K en Netflix, Amazon y YouTube, entre otros; y escucha música con Spotify.",
			"Conéctate y juega con amigos y familiares en Xbox Live, la red de juegos más rápida y fiable. Encuentra amigos, rivales y compañeros de equipo en la mejor comunidad mundial de juegos. Xbox Live es la red multijugador más avanzada y proporciona un juego estable y descargas rápidas. Compite, conecte y comparte en plataformas con jugadores en Xbox One y Windows 10. Obtén dos cuatro juegos gratis cada mes con Xbox Live Gold.",
			"Obtén ofertas exclusivas como acceso ilimitado a más de 100 juegos para empezar a jugar de inmediato Xbox Game Pass te da acceso instantáneo e ilimitado a más de 100 juegos altamente calificados y divertidos, con nuevos juegos se añaden todo el tiempo.",
			"Experimenta cientos de juegos legendarios de todas las consolas Xbox con compatibilidad anterior. Disfruta de la libertad de juegos Xbox Play Anywhere tanto en Xbox One como en Windows 10 PC sin coste adicional."
		],
		"price": 649,
		"stock": 2,
		"extra_info": [
			{
				"label": "Marca",
				"value": "Xbox One X"
			},
			{
				"label": "Fabricante",
				"value": "Microsoft"
			},
			{
				"label": "Dimensiones del producto",
				"value": "20 x 18.3 x 8.5 pulgadas; 12.5 Libras"
			},
			{
				"label": "Año de lanzamiento",
				"value": "2020"
			}
		]
	},
	{
		"title": "PlayStation 5",
		"category_id": 13,
		"product_id": 1,
		"description": "La consola PS5 abre nuevas posibilidades de juego que nunca habías anticipado. Experimente una carga ultrarrápida con una SSD de alta velocidad, una inmersión más profunda con compatibilidad con retroalimentación háptica, disparadores adaptativos y audio 3D y una nueva generación de increíbles juegos de PlayStation.",
		"features": [
			"Velocidad de rayo: aprovecha la potencia de una CPU, GPU y SSD personalizados con I/O integrado que reescribe las reglas de lo que puede hacer una consola PlayStation.",
			"Impresionantes juegos: Marvel con gráficos increíbles y experimenta nuevas funciones de PS5.",
			"Impresionante inmersión – Descubre una experiencia de juego más profunda con soporte para retroalimentación táctil, disparadores adaptativos y tecnología de audio 3D."
		],
		"price": "700",
		"stock": "5",
		"extra_info": [
			{
				"label": "Marca",
				"value": "PlayStation 5"
			},
			{
				"label": "Fabricante",
				"value": "Sony"
			},
			{
				"label": "Dimensiones del producto",
				"value": "18 x 18 x 12 pulgadas; 14.2 Libras"
			},
			{
				"label": "Año de lanzamiento",
				"value": "2020"
			},
			{
				"label": "Modelo del producto",
				"value": "3005718"
			}
		]
	},
	{
		"title": "PlayStation 5 - Digital Edition",
		"category_id": 13,
		"product_id": 1,
		"description": "La edición digital de PS5 da rienda suelta a nuevas posibilidades de juego que nunca anticipaste. Experimente una carga ultrarrápida con un SSD de velocidad ultrarrápida, una inmersión más profunda con soporte para retroalimentación háptica, activadores adaptativos y audio 3D, y una generación completamente nueva de increíbles juegos de PlayStation. PS5 Digital Edition es una versión totalmente digital de la consola PS5 sin unidad de disco.",
		"features": [
			"Velocidad de rayo: aprovecha la potencia de una CPU, GPU y SSD personalizados con I/O integrado que reescribe las reglas de lo que puede hacer una consola PlayStation.",
			"Impresionantes juegos: Marvel con gráficos increíbles y experimenta nuevas funciones de PS5.",
			"Impresionante inmersión – Descubre una experiencia de juego más profunda con soporte para retroalimentación táctil, disparadores adaptativos y tecnología de audio 3D."
		],
		"price": "400",
		"stock": "5",
		"extra_info": [
			{
				"label": "Marca",
				"value": "PlayStation 5 - Digital Edition"
			},
			{
				"label": "Fabricante",
				"value": "Sony"
			},
			{
				"label": "Dimensiones del producto",
				"value": "18.6 x 16.9 x 7 pulgadas; 13.3 Libras"
			},
			{
				"label": "Año de lanzamiento",
				"value": "2020"
			},
			{
				"label": "Modelo del producto",
				"value": "3005719"
			}
		]
	}
]
